%YAML 1.1
%TAG !u! tag:unity3d.com,2011:
--- !u!1001 &5856061099739069440
PrefabInstance:
  m_ObjectHideFlags: 0
  serializedVersion: 2
  m_Modification:
    m_TransformParent: {fileID: 0}
    m_Modifications:
    - target: {fileID: 1440955497, guid: 901db04ec3e28443d8e1f619c037af5d, type: 3}
      propertyPath: m_Controller
      value: 
      objectReference: {fileID: 22100000, guid: cbc2a1b50a54f4c9ca3501302c04507c,
        type: 2}
    - target: {fileID: 1440955498, guid: 901db04ec3e28443d8e1f619c037af5d, type: 3}
      propertyPath: warningClips.Array.size
      value: 3
      objectReference: {fileID: 0}
    - target: {fileID: 1440955498, guid: 901db04ec3e28443d8e1f619c037af5d, type: 3}
      propertyPath: screamClips.Array.size
      value: 3
      objectReference: {fileID: 0}
    - target: {fileID: 1440955498, guid: 901db04ec3e28443d8e1f619c037af5d, type: 3}
      propertyPath: scoreSpeed
      value: 100
      objectReference: {fileID: 0}
    - target: {fileID: 1440955498, guid: 901db04ec3e28443d8e1f619c037af5d, type: 3}
      propertyPath: MalusScore
      value: 0
      objectReference: {fileID: 0}
    - target: {fileID: 1440955498, guid: 901db04ec3e28443d8e1f619c037af5d, type: 3}
      propertyPath: timerMax
      value: 2
      objectReference: {fileID: 0}
    - target: {fileID: 1440955498, guid: 901db04ec3e28443d8e1f619c037af5d, type: 3}
      propertyPath: isKilt
      value: 1
      objectReference: {fileID: 0}
    - target: {fileID: 1440955498, guid: 901db04ec3e28443d8e1f619c037af5d, type: 3}
      propertyPath: warningClips.Array.data[0]
      value: 
      objectReference: {fileID: 8300000, guid: e5f27d19bb1334afe9da6e8fbd855852, type: 3}
    - target: {fileID: 1440955498, guid: 901db04ec3e28443d8e1f619c037af5d, type: 3}
      propertyPath: screamClips.Array.data[0]
      value: 
      objectReference: {fileID: 8300000, guid: 4c29e175f84824efb980aff24d33483e, type: 3}
    - target: {fileID: 1440955498, guid: 901db04ec3e28443d8e1f619c037af5d, type: 3}
      propertyPath: screamClips.Array.data[1]
      value: 
      objectReference: {fileID: 8300000, guid: 1f488d5cdcaac45e39a953b62c3af4ad, type: 3}
    - target: {fileID: 1440955498, guid: 901db04ec3e28443d8e1f619c037af5d, type: 3}
      propertyPath: screamClips.Array.data[2]
      value: 
      objectReference: {fileID: 8300000, guid: 8887a9d419b7841a1954edab579d7609, type: 3}
    - target: {fileID: 1440955498, guid: 901db04ec3e28443d8e1f619c037af5d, type: 3}
      propertyPath: warningClips.Array.data[1]
      value: 
      objectReference: {fileID: 8300000, guid: 6c2f552f5475445ceaaf1111dac27bf5, type: 3}
    - target: {fileID: 1440955498, guid: 901db04ec3e28443d8e1f619c037af5d, type: 3}
      propertyPath: warningClips.Array.data[2]
      value: 
      objectReference: {fileID: 8300000, guid: 04a6a3f44065746e0a32c4ab5e08a44f, type: 3}
    - target: {fileID: 1059765309766369684, guid: 901db04ec3e28443d8e1f619c037af5d,
        type: 3}
      propertyPath: m_Sprite
      value: 
      objectReference: {fileID: 385214940086794992, guid: 0a8cd89edbc344d8682d2f877a93a64b,
        type: 3}
    - target: {fileID: 2070744209287154674, guid: 901db04ec3e28443d8e1f619c037af5d,
        type: 3}
      propertyPath: m_Sprite
      value: 
      objectReference: {fileID: -4842746790627566915, guid: 0a8cd89edbc344d8682d2f877a93a64b,
        type: 3}
    - target: {fileID: 2433676248967329831, guid: 901db04ec3e28443d8e1f619c037af5d,
        type: 3}
      propertyPath: m_Sprite
      value: 
      objectReference: {fileID: -1450892264747224894, guid: 0a8cd89edbc344d8682d2f877a93a64b,
        type: 3}
    - target: {fileID: 2662438155924638357, guid: 901db04ec3e28443d8e1f619c037af5d,
        type: 3}
      propertyPath: m_Name
      value: Kilt
      objectReference: {fileID: 0}
    - target: {fileID: 3226542291488165379, guid: 901db04ec3e28443d8e1f619c037af5d,
        type: 3}
      propertyPath: m_Sprite
      value: 
      objectReference: {fileID: -749767709480247810, guid: 0a8cd89edbc344d8682d2f877a93a64b,
        type: 3}
    - target: {fileID: 4368431313424126870, guid: 901db04ec3e28443d8e1f619c037af5d,
        type: 3}
      propertyPath: m_Sprite
      value: 
      objectReference: {fileID: -491788119509550025, guid: 0a8cd89edbc344d8682d2f877a93a64b,
        type: 3}
    - target: {fileID: 5067043840774717629, guid: 901db04ec3e28443d8e1f619c037af5d,
        type: 3}
      propertyPath: m_Sprite
      value: 
      objectReference: {fileID: -3887528829134571977, guid: 0a8cd89edbc344d8682d2f877a93a64b,
        type: 3}
    - target: {fileID: 5127277506635261581, guid: 901db04ec3e28443d8e1f619c037af5d,
        type: 3}
      propertyPath: m_Sprite
      value: 
      objectReference: {fileID: -1450892264747224894, guid: 0a8cd89edbc344d8682d2f877a93a64b,
        type: 3}
    - target: {fileID: 5511795270304783344, guid: 901db04ec3e28443d8e1f619c037af5d,
        type: 3}
      propertyPath: m_Sprite
      value: 
      objectReference: {fileID: -749767709480247810, guid: 0a8cd89edbc344d8682d2f877a93a64b,
        type: 3}
    - target: {fileID: 6639685345108166245, guid: 901db04ec3e28443d8e1f619c037af5d,
        type: 3}
      propertyPath: m_Sprite
      value: 
      objectReference: {fileID: -491788119509550025, guid: 0a8cd89edbc344d8682d2f877a93a64b,
        type: 3}
    - target: {fileID: 7930317130106704999, guid: 901db04ec3e28443d8e1f619c037af5d,
        type: 3}
      propertyPath: m_Sprite
      value: 
      objectReference: {fileID: 385214940086794992, guid: 0a8cd89edbc344d8682d2f877a93a64b,
        type: 3}
    - target: {fileID: 8108809288277291723, guid: 901db04ec3e28443d8e1f619c037af5d,
        type: 3}
      propertyPath: m_LocalPosition.x
      value: 0
      objectReference: {fileID: 0}
    - target: {fileID: 8108809288277291723, guid: 901db04ec3e28443d8e1f619c037af5d,
        type: 3}
      propertyPath: m_LocalPosition.y
      value: 0
      objectReference: {fileID: 0}
    - target: {fileID: 8108809288277291723, guid: 901db04ec3e28443d8e1f619c037af5d,
        type: 3}
      propertyPath: m_LocalPosition.z
      value: 0
      objectReference: {fileID: 0}
    - target: {fileID: 8108809288277291723, guid: 901db04ec3e28443d8e1f619c037af5d,
        type: 3}
      propertyPath: m_LocalRotation.x
      value: 0
      objectReference: {fileID: 0}
    - target: {fileID: 8108809288277291723, guid: 901db04ec3e28443d8e1f619c037af5d,
        type: 3}
      propertyPath: m_LocalRotation.y
      value: 0
      objectReference: {fileID: 0}
    - target: {fileID: 8108809288277291723, guid: 901db04ec3e28443d8e1f619c037af5d,
        type: 3}
      propertyPath: m_LocalRotation.z
      value: 0
      objectReference: {fileID: 0}
    - target: {fileID: 8108809288277291723, guid: 901db04ec3e28443d8e1f619c037af5d,
        type: 3}
      propertyPath: m_LocalRotation.w
      value: 1
      objectReference: {fileID: 0}
    - target: {fileID: 8108809288277291723, guid: 901db04ec3e28443d8e1f619c037af5d,
        type: 3}
      propertyPath: m_RootOrder
      value: 0
      objectReference: {fileID: 0}
    - target: {fileID: 8108809288277291723, guid: 901db04ec3e28443d8e1f619c037af5d,
        type: 3}
      propertyPath: m_LocalEulerAnglesHint.x
      value: 0
      objectReference: {fileID: 0}
    - target: {fileID: 8108809288277291723, guid: 901db04ec3e28443d8e1f619c037af5d,
        type: 3}
      propertyPath: m_LocalEulerAnglesHint.y
      value: 0
      objectReference: {fileID: 0}
    - target: {fileID: 8108809288277291723, guid: 901db04ec3e28443d8e1f619c037af5d,
        type: 3}
      propertyPath: m_LocalEulerAnglesHint.z
      value: 0
      objectReference: {fileID: 0}
    m_RemovedComponents: []
  m_SourcePrefab: {fileID: 100100000, guid: 901db04ec3e28443d8e1f619c037af5d, type: 3}
